\relax 
\@writefile{toc}{\contentsline {section}{\numberline {1}Introduction}{1}}
\@writefile{toc}{\contentsline {section}{\numberline {2}Understanding Statements}{1}}
\@writefile{toc}{\contentsline {section}{\numberline {3}Compositional and Lexical Semantics}{2}}
\@writefile{toc}{\contentsline {section}{\numberline {4}Semantic Representation}{3}}
\@writefile{toc}{\contentsline {section}{\numberline {5}Implementation}{4}}
\@writefile{toc}{\contentsline {subsection}{\numberline {5.1}Sentence Parsing}{4}}
\@writefile{toc}{\contentsline {subsection}{\numberline {5.2}Sentence to Predicates}{5}}
