{'parse': [{'subj': u'1', 'name': u' ball'}, {'subj': u'1', 'name': u'is'}, {'obj1': u'4', 'subj': u'1', 'name': u'on'}, {'subj': u'4', 'name': u' table'}], 'objects': [u'1', u'4']}

{'parse': [{'subj': u'2', 'name': u' blue'}, {'subj': u'2', 'name': u' ball'}, {'subj': u'2', 'name': u'is'}, {'obj1': u'5', 'subj': u'2', 'name': u'on'}, {'subj': u'5', 'name': u' table'}], 'objects': [u'2', u'5']}

{'parse': [{'subj': u'2', 'name': u' red'}, {'subj': u'2', 'name': u' block'}, {'subj': u'2', 'name': u'is'}, {'obj1': u'5', 'subj': u'2', 'name': u'on'}, {'subj': u'5', 'name': u' table'}], 'objects': [u'2', u'5']}

{'parse': [{'subj': u'1', 'name': u' ball'}, {'subj': u'1', 'name': u'is'}, {'obj1': u'5', 'subj': u'1', 'name': u'behind'}, {'subj': u'5', 'name': u' red'}, {'subj': u'5', 'name': u' block'}], 'objects': [u'1', u'5']}

{'parse': [{'subj': u'2', 'name': u' blue'}, {'subj': u'2', 'name': u' ball'}, {'subj': u'2', 'name': u'is'}, {'obj1': u'6', 'subj': u'2', 'name': u'behind'}, {'subj': u'6', 'name': u' red'}, {'subj': u'6', 'name': u' block'}], 'objects': [u'2', u'6']}

{'parse': [{'subj': u'1', 'name': u' ball'}, {'subj': u'1', 'name': u'is'}, {'obj1': u'4', 'subj': u'1', 'name': u'behind'}, {'subj': u'4', 'name': u' block'}], 'objects': [u'1', u'4']}

{'parse': [{'subj': u'2', 'name': u' blue'}, {'subj': u'2', 'name': u' block'}, {'subj': u'2', 'name': u'is'}, {'obj1': u'6', 'subj': u'2', 'name': u'on'}, {'subj': u'6', 'name': u' red'}, {'subj': u'6', 'name': u' block'}], 'objects': [u'2', u'6']}

{'parse': [{'subj': u'2', 'name': u' blue'}, {'subj': u'2', 'name': u' block'}, {'subj': u'2', 'name': u'is'}, {'obj1': u'5', 'subj': u'2', 'name': u'on'}, {'subj': u'5', 'name': u' table'}], 'objects': [u'2', u'5']}

{'parse': [{'subj': u'2', 'name': u' blue'}, {'subj': u'2', 'name': u'ball'}], 'objects': [u'2']}

{'parse': [{'subj': u'2', 'name': u' red'}, {'subj': u'2', 'name': u'table'}], 'objects': [u'2']}

{'parse': [{'subj': u'2', 'name': u' blue'}, {'subj': u'2', 'name': u' ball'}, {'subj': u'2', 'name': u'is'}, {'obj1': u'5', 'subj': u'2', 'name': u'on'}, {'subj': u'5', 'name': u' table'}], 'objects': [u'2', u'5']}

{'parse': [{'subj': u'2', 'name': u' blue'}, {'subj': u'2', 'name': u' ball'}, {'subj': u'2', 'name': u'is'}, {'obj1': u'6', 'subj': u'2', 'name': u'on'}, {'subj': u'6', 'name': u' red'}, {'subj': u'6', 'name': u' table'}], 'objects': [u'2', u'6']}

{'parse': [{'subj': u'1', 'name': u' ball'}, {'subj': u'1', 'name': u'is'}, {'obj1': u'5', 'subj': u'1', 'name': u'on'}, {'subj': u'5', 'name': u' red'}, {'subj': u'5', 'name': u' table'}], 'objects': [u'1', u'5']}

{'parse': [{'subj': u'2', 'name': u' blue'}, {'subj': u'2', 'name': u'block'}], 'objects': [u'2']}

{'parse': [{'subj': u'2', 'name': u' blue'}, {'subj': u'2', 'name': u' ball'}, {'subj': u'2', 'name': u'is'}, {'obj1': u'5', 'subj': u'2', 'name': u'on'}, {'subj': u'5', 'name': u' block'}], 'objects': [u'2', u'5']}

{'parse': [{'subj': u'2', 'name': u' blue'}, {'subj': u'2', 'name': u' ball'}, {'subj': u'2', 'name': u'is'}, {'obj1': u'6', 'subj': u'2', 'name': u'on'}, {'subj': u'6', 'name': u' blue'}, {'subj': u'6', 'name': u' block'}], 'objects': [u'2', u'6']}

{'parse': [{'subj': u'2', 'name': u' blue'}, {'subj': u'2', 'name': u'ball'}], 'objects': [u'2']}

{'parse': [{'subj': u'1', 'name': u' ball'}, {'subj': u'1', 'name': u'is'}, {'obj1': u'4', 'subj': u'1', 'name': u'on'}, {'subj': u'4', 'name': u' block'}], 'objects': [u'1', u'4']}

{'parse': [{'subj': u'2', 'name': u' red'}, {'subj': u'2', 'name': u'ball'}], 'objects': [u'2']}

{'parse': [{'subj': u'2', 'name': u' blue'}, {'subj': u'2', 'name': u'block'}], 'objects': [u'2']}

{'parse': [{'subj': u'2', 'name': u' red'}, {'subj': u'2', 'name': u'block'}], 'objects': [u'2']}

{'parse': [{'subj': u'2', 'name': u' blue'}, {'subj': u'2', 'name': u' block'}, {'subj': u'2', 'name': u'is'}, {'obj1': u'5', 'subj': u'2', 'name': u'behind'}, {'subj': u'5', 'name': u' ball'}], 'objects': [u'2', u'5']}

{'parse': [{'subj': u'2', 'name': u' blue'}, {'subj': u'2', 'name': u' block'}, {'subj': u'2', 'name': u'is'}, {'obj1': u'6', 'subj': u'2', 'name': u'behind'}, {'subj': u'6', 'name': u' red'}, {'subj': u'6', 'name': u' ball'}], 'objects': [u'2', u'6']}

{'parse': [{'subj': u'1', 'name': u' block'}, {'subj': u'1', 'name': u'is'}, {'obj1': u'5', 'subj': u'1', 'name': u'on'}, {'subj': u'5', 'name': u' blue'}, {'subj': u'5', 'name': u' block'}], 'objects': [u'1', u'5']}

{'parse': [{'subj': u'2', 'name': u' red'}, {'subj': u'2', 'name': u' block'}, {'subj': u'2', 'name': u'is'}, {'obj1': u'6', 'subj': u'2', 'name': u'on'}, {'subj': u'6', 'name': u' blue'}, {'subj': u'6', 'name': u' block'}], 'objects': [u'2', u'6']}

{'parse': [{'subj': u'1', 'name': u' block'}, {'subj': u'1', 'name': u'is'}, {'obj1': u'4', 'subj': u'1', 'name': u'behind'}, {'subj': u'4', 'name': u' ball'}], 'objects': [u'1', u'4']}

{'parse': [{'subj': u'2', 'name': u' red'}, {'subj': u'2', 'name': u' ball'}, {'subj': u'2', 'name': u'is'}, {'obj1': u'6', 'subj': u'2', 'name': u'on'}, {'subj': u'6', 'name': u' blue'}, {'subj': u'6', 'name': u' block'}], 'objects': [u'2', u'6']}

{'parse': [{'subj': u'2', 'name': u' red'}, {'subj': u'2', 'name': u' ball'}, {'subj': u'2', 'name': u'is'}, {'obj1': u'6', 'subj': u'2', 'name': u'on'}, {'subj': u'6', 'name': u' blue'}, {'subj': u'6', 'name': u' block'}], 'objects': [u'2', u'6']}

{'parse': [{'subj': u'1', 'name': u' ball'}, {'subj': u'1', 'name': u'is'}, {'obj1': u'5', 'subj': u'1', 'name': u'on'}, {'subj': u'5', 'name': u' blue'}, {'subj': u'5', 'name': u' block'}], 'objects': [u'1', u'5']}

{'parse': [{'subj': u'1', 'name': u' block'}, {'subj': u'1', 'name': u'is'}, {'obj1': u'5', 'subj': u'1', 'name': u'on'}, {'subj': u'5', 'name': u' red'}, {'subj': u'5', 'name': u' block'}], 'objects': [u'1', u'5']}

{'parse': [{'subj': u'1', 'name': u' ball'}, {'subj': u'1', 'name': u'is'}, {'obj1': u'4', 'subj': u'1', 'name': u'on'}, {'subj': u'4', 'name': u' block'}], 'objects': [u'1', u'4']}

{'parse': [{'subj': u'2', 'name': u' blue'}, {'subj': u'2', 'name': u'block'}], 'objects': [u'2']}

{'parse': [{}], 'objects': []}

{'parse': [{'subj': u'2', 'name': u' blue'}, {'subj': u'2', 'name': u'ball'}], 'objects': [u'2']}

{'parse': [{'subj': u'1', 'name': u' ball'}, {'subj': u'1', 'name': u'is'}, {'obj1': u'4', 'subj': u'1', 'name': u'behind'}, {'subj': u'4', 'name': u' block'}], 'objects': [u'1', u'4']}

{'parse': [{'subj': u'2', 'name': u' blue'}, {'subj': u'2', 'name': u' ball'}, {'subj': u'2', 'name': u'is'}, {'obj1': u'6', 'subj': u'2', 'name': u'behind'}, {'subj': u'6', 'name': u' blue'}, {'subj': u'6', 'name': u' block'}], 'objects': [u'2', u'6']}

{'parse': [{'subj': u'1', 'name': u' ball'}, {'subj': u'1', 'name': u'is'}, {'obj1': u'5', 'subj': u'1', 'name': u'behind'}, {'subj': u'5', 'name': u' blue'}, {'subj': u'5', 'name': u' block'}], 'objects': [u'1', u'5']}

{'parse': [{'subj': u'2', 'name': u' blue'}, {'subj': u'2', 'name': u' ball'}, {'subj': u'2', 'name': u'is'}, {'obj1': u'5', 'subj': u'2', 'name': u'behind'}, {'subj': u'5', 'name': u' block'}], 'objects': [u'2', u'5']}

{'parse': [{'subj': u'1', 'name': u' ball'}, {'subj': u'1', 'name': u'is'}, {'obj1': u'4', 'subj': u'1', 'name': u'on'}, {'subj': u'4', 'name': u' table'}], 'objects': [u'1', u'4']}{'parse': [{'subj': u'2', 'name': u' blue'}, {'subj': u'2', 'name': u' ball'}, {'subj': u'2', 'name': u'is'}, {'obj1': u'5', 'subj': u'2', 'name': u'on'}, {'subj': u'5', 'name': u' table'}], 'objects': [u'2', u'5']}{'parse': [{'subj': u'2', 'name': u' red'}, {'subj': u'2', 'name': u' block'}, {'subj': u'2', 'name': u'is'}, {'obj1': u'5', 'subj': u'2', 'name': u'on'}, {'subj': u'5', 'name': u' table'}], 'objects': [u'2', u'5']}{'parse': [{'subj': u'1', 'name': u' ball'}, {'subj': u'1', 'name': u'is'}, {'obj1': u'5', 'subj': u'1', 'name': u'behind'}, {'subj': u'5', 'name': u' red'}, {'subj': u'5', 'name': u' block'}], 'objects': [u'1', u'5']}{'parse': [{'subj': u'2', 'name': u' blue'}, {'subj': u'2', 'name': u' ball'}, {'subj': u'2', 'name': u'is'}, {'obj1': u'6', 'subj': u'2', 'name': u'behind'}, {'subj': u'6', 'name': u' red'}, {'subj': u'6', 'name': u' block'}], 'objects': [u'2', u'6']}{'parse': [{'subj': u'1', 'name': u' ball'}, {'subj': u'1', 'name': u'is'}, {'obj1': u'4', 'subj': u'1', 'name': u'behind'}, {'subj': u'4', 'name': u' block'}], 'objects': [u'1', u'4']}{'parse': [{'subj': u'2', 'name': u' blue'}, {'subj': u'2', 'name': u' block'}, {'subj': u'2', 'name': u'is'}, {'obj1': u'6', 'subj': u'2', 'name': u'on'}, {'subj': u'6', 'name': u' red'}, {'subj': u'6', 'name': u' block'}], 'objects': [u'2', u'6']}{'parse': [{'subj': u'2', 'name': u' blue'}, {'subj': u'2', 'name': u' block'}, {'subj': u'2', 'name': u'is'}, {'obj1': u'5', 'subj': u'2', 'name': u'on'}, {'subj': u'5', 'name': u' table'}], 'objects': [u'2', u'5']}{'parse': [{'subj': u'2', 'name': u' blue'}, {'subj': u'2', 'name': u'ball'}], 'objects': [u'2']}{'parse': [{'subj': u'2', 'name': u' red'}, {'subj': u'2', 'name': u'table'}], 'objects': [u'2']}{'parse': [{'subj': u'2', 'name': u' blue'}, {'subj': u'2', 'name': u' ball'}, {'subj': u'2', 'name': u'is'}, {'obj1': u'5', 'subj': u'2', 'name': u'on'}, {'subj': u'5', 'name': u' table'}], 'objects': [u'2', u'5']}{'parse': [{'subj': u'2', 'name': u' blue'}, {'subj': u'2', 'name': u' ball'}, {'subj': u'2', 'name': u'is'}, {'obj1': u'6', 'subj': u'2', 'name': u'on'}, {'subj': u'6', 'name': u' red'}, {'subj': u'6', 'name': u' table'}], 'objects': [u'2', u'6']}{'parse': [{'subj': u'1', 'name': u' ball'}, {'subj': u'1', 'name': u'is'}, {'obj1': u'5', 'subj': u'1', 'name': u'on'}, {'subj': u'5', 'name': u' red'}, {'subj': u'5', 'name': u' table'}], 'objects': [u'1', u'5']}{'parse': [{'subj': u'2', 'name': u' blue'}, {'subj': u'2', 'name': u'block'}], 'objects': [u'2']}{'parse': [{'subj': u'2', 'name': u' blue'}, {'subj': u'2', 'name': u' ball'}, {'subj': u'2', 'name': u'is'}, {'obj1': u'5', 'subj': u'2', 'name': u'on'}, {'subj': u'5', 'name': u' block'}], 'objects': [u'2', u'5']}{'parse': [{'subj': u'2', 'name': u' blue'}, {'subj': u'2', 'name': u' ball'}, {'subj': u'2', 'name': u'is'}, {'obj1': u'6', 'subj': u'2', 'name': u'on'}, {'subj': u'6', 'name': u' blue'}, {'subj': u'6', 'name': u' block'}], 'objects': [u'2', u'6']}{'parse': [{'subj': u'2', 'name': u' blue'}, {'subj': u'2', 'name': u'ball'}], 'objects': [u'2']}{'parse': [{'subj': u'1', 'name': u' ball'}, {'subj': u'1', 'name': u'is'}, {'obj1': u'4', 'subj': u'1', 'name': u'on'}, {'subj': u'4', 'name': u' block'}], 'objects': [u'1', u'4']}{'parse': [{'subj': u'2', 'name': u' red'}, {'subj': u'2', 'name': u'ball'}], 'objects': [u'2']}{'parse': [{'subj': u'2', 'name': u' blue'}, {'subj': u'2', 'name': u'block'}], 'objects': [u'2']}{'parse': [{'subj': u'2', 'name': u' red'}, {'subj': u'2', 'name': u'block'}], 'objects': [u'2']}{'parse': [{'subj': u'2', 'name': u' blue'}, {'subj': u'2', 'name': u' block'}, {'subj': u'2', 'name': u'is'}, {'obj1': u'5', 'subj': u'2', 'name': u'behind'}, {'subj': u'5', 'name': u' ball'}], 'objects': [u'2', u'5']}{'parse': [{'subj': u'2', 'name': u' blue'}, {'subj': u'2', 'name': u' block'}, {'subj': u'2', 'name': u'is'}, {'obj1': u'6', 'subj': u'2', 'name': u'behind'}, {'subj': u'6', 'name': u' red'}, {'subj': u'6', 'name': u' ball'}], 'objects': [u'2', u'6']}{'parse': [{'subj': u'1', 'name': u' block'}, {'subj': u'1', 'name': u'is'}, {'obj1': u'5', 'subj': u'1', 'name': u'on'}, {'subj': u'5', 'name': u' blue'}, {'subj': u'5', 'name': u' block'}], 'objects': [u'1', u'5']}{'parse': [{'subj': u'2', 'name': u' red'}, {'subj': u'2', 'name': u' block'}, {'subj': u'2', 'name': u'is'}, {'obj1': u'6', 'subj': u'2', 'name': u'on'}, {'subj': u'6', 'name': u' blue'}, {'subj': u'6', 'name': u' block'}], 'objects': [u'2', u'6']}{'parse': [{'subj': u'1', 'name': u' block'}, {'subj': u'1', 'name': u'is'}, {'obj1': u'4', 'subj': u'1', 'name': u'behind'}, {'subj': u'4', 'name': u' ball'}], 'objects': [u'1', u'4']}{'parse': [{'subj': u'2', 'name': u' red'}, {'subj': u'2', 'name': u' ball'}, {'subj': u'2', 'name': u'is'}, {'obj1': u'6', 'subj': u'2', 'name': u'on'}, {'subj': u'6', 'name': u' blue'}, {'subj': u'6', 'name': u' block'}], 'objects': [u'2', u'6']}{'parse': [{'subj': u'2', 'name': u' red'}, {'subj': u'2', 'name': u' ball'}, {'subj': u'2', 'name': u'is'}, {'obj1': u'6', 'subj': u'2', 'name': u'on'}, {'subj': u'6', 'name': u' blue'}, {'subj': u'6', 'name': u' block'}], 'objects': [u'2', u'6']}{'parse': [{'subj': u'1', 'name': u' ball'}, {'subj': u'1', 'name': u'is'}, {'obj1': u'5', 'subj': u'1', 'name': u'on'}, {'subj': u'5', 'name': u' blue'}, {'subj': u'5', 'name': u' block'}], 'objects': [u'1', u'5']}{'parse': [{'subj': u'1', 'name': u' block'}, {'subj': u'1', 'name': u'is'}, {'obj1': u'5', 'subj': u'1', 'name': u'on'}, {'subj': u'5', 'name': u' red'}, {'subj': u'5', 'name': u' block'}], 'objects': [u'1', u'5']}{'parse': [{'subj': u'1', 'name': u' ball'}, {'subj': u'1', 'name': u'is'}, {'obj1': u'4', 'subj': u'1', 'name': u'on'}, {'subj': u'4', 'name': u' block'}], 'objects': [u'1', u'4']}{'parse': [{'subj': u'2', 'name': u' blue'}, {'subj': u'2', 'name': u'block'}], 'objects': [u'2']}{'parse': [{}], 'objects': []}{'parse': [{'subj': u'2', 'name': u' blue'}, {'subj': u'2', 'name': u'ball'}], 'objects': [u'2']}{'parse': [{'subj': u'1', 'name': u' ball'}, {'subj': u'1', 'name': u'is'}, {'obj1': u'4', 'subj': u'1', 'name': u'behind'}, {'subj': u'4', 'name': u' block'}], 'objects': [u'1', u'4']}{'parse': [{'subj': u'2', 'name': u' blue'}, {'subj': u'2', 'name': u' ball'}, {'subj': u'2', 'name': u'is'}, {'obj1': u'6', 'subj': u'2', 'name': u'behind'}, {'subj': u'6', 'name': u' blue'}, {'subj': u'6', 'name': u' block'}], 'objects': [u'2', u'6']}{'parse': [{'subj': u'1', 'name': u' ball'}, {'subj': u'1', 'name': u'is'}, {'obj1': u'5', 'subj': u'1', 'name': u'behind'}, {'subj': u'5', 'name': u' blue'}, {'subj': u'5', 'name': u' block'}], 'objects': [u'1', u'5']}{'parse': [{'subj': u'2', 'name': u' blue'}, {'subj': u'2', 'name': u' ball'}, {'subj': u'2', 'name': u'is'}, {'obj1': u'5', 'subj': u'2', 'name': u'behind'}, {'subj': u'5', 'name': u' block'}], 'objects': [u'2', u'5']}{'parse': [{'subj': u'2', 'name': u' blue'}, {'subj': u'2', 'name': u' ball'}, {'subj': u'2', 'name': u'is'}, {'obj1': u'5', 'subj': u'2', 'name': u'on'}, {'subj': u'5', 'name': u' table'}], 'objects': [u'2', u'5']}{'parse': [{'subj': u'2', 'name': u' red'}, {'subj': u'2', 'name': u' block'}, {'subj': u'2', 'name': u'is'}, {'obj1': u'5', 'subj': u'2', 'name': u'on'}, {'subj': u'5', 'name': u' table'}], 'objects': [u'2', u'5']}